Input,hMETIS,Ours,Rand min,Rand Q1,Rand median,Rand Q3,Rand max
ISPD98_ibm01,181,363,9097,9196.75,9240,9272,9361
ISPD98_ibm02,262,12787,13206,13334.25,13370,13408.25,13499
ISPD98_ibm03,952,2550,17247,17395.5,17456.5,17507.25,17660
ISPD98_ibm04,541,747,20470,20615.25,20670,20744.5,20950
ISPD98_ibm05,1722,3502,18769,18863.75,18903.5,18953.75,19118
ISPD98_ibm06,895,2025,22788,22888.25,22935.5,22981.75,23083
ISPD98_ibm07,879,1704,31756,31999,32056,32108.25,32248
ISPD98_ibm09,628,1566,40017,40258.75,40329.5,40407.75,40694
ISPD98_ibm10,1269,3797,50344,50554.5,50631,50730,50909
ISPD98_ibm11,1045,2999,53940,54151.75,54243,54316.25,54580
ISPD98_ibm12,1990,6584,51770,52026,52111.5,52187.25,52399
ISPD98_ibm13,842,3931,65772,66000.5,66054.5,66161.5,66359
