Input,hMETIS,Ours,Rand min,Rand Q1,Rand median,Rand Q3,Rand max
ISPD98_ibm01,3.62E+02,7.26E+02,18194,18393.5,18480,18544,18722
ISPD98_ibm02,524,25574,26412,26668.5,26740,26816.5,26998
ISPD98_ibm03,1904,5100,34494,34791,34913,35014.5,35320
ISPD98_ibm04,1082,1494,40940,41230.5,41340,41489,41900
ISPD98_ibm05,3444,7004,37538,37727.5,37807,37907.5,38236
ISPD98_ibm06,1790,4050,45576,45776.5,45871,45963.5,46166
ISPD98_ibm07,1758,3408,63512,63998,64112,64216.5,64496
ISPD98_ibm09,1256,3132,80034,80517.5,80659,80815.5,81388
ISPD98_ibm10,2538,7594,100688,101109,101262,101460,101818
ISPD98_ibm11,2090,5998,107880,108303.5,108486,108632.5,109160
ISPD98_ibm12,3980,13168,103540,104052,104223,104374.5,104798
ISPD98_ibm13,1684,7862,131544,132001,132109,132323,132718
