Parse (msec),Eigen Solver (msec),Clustering (msec)
77,2091,492
72,2149,486
80,4195,491
78,1898,515
78,1832,521
78,2079,495
76,4077,506
77,1736,501
78,2242,497
79,1727,493
80,2171,522
80,3305,506
78,1671,510
77,2207,492
78,2404,510
81,3768,512
75,2914,492
76,1631,503
81,2411,525
82,2576,521
79,2454,510
81,2413,511
81,1574,505
81,2601,512
82,2328,501
78,2364,507
79,1767,502
83,1961,499
78,1970,491
82,1745,507
79,2982,493
82,1539,492
75,2264,498
76,1684,498
78,24538,292
73,2185,523
73,2345,508
77,1789,512
74,2122,494
76,1928,506
75,1688,503
75,2316,495
71,1722,485
74,3577,505
74,4358,501
74,1805,504
76,1876,502
72,1728,494
74,3198,492
70,2216,498
75,1815,507
75,1714,496
75,2175,506
76,3220,502
76,2445,516
76,2745,503
75,1800,509
74,2599,496
73,2012,502
74,1827,502
71,1628,493
74,3095,479
75,3427,437
75,1684,497
76,2180,509
75,1458,505
75,2613,491
73,2683,488
73,1848,494
74,2392,495
75,2169,502
73,1927,497
74,2168,503
74,2853,435
75,1721,501
75,2237,457
72,1689,487
74,4090,319
75,2145,473
74,1663,505
72,4880,300
74,2061,443
76,1788,487
74,3769,303
73,1872,461
72,2584,332
74,2001,370
75,1765,394
74,1779,349
72,3563,301
74,1788,359
75,1854,352
74,1989,329
74,2203,322
77,1970,330
75,1321,324
75,1249,329
77,6870,298
74,1608,317
73,1413,327
